package rules.vouchers.validator;

import com.bolttech.edirect.rulesengine.model.voucher.Voucher
import com.bolttech.edirect.rulesengine.model.context.ApiContext
import com.bolttech.edirect.rulesengine.model.context.Instance
import com.bolttech.edirect.rulesengine.model.context.Vertical
import com.bolttech.edirect.rulesengine.model.context.Partner
import com.bolttech.edirect.rulesengine.model.type.InstanceType
import com.bolttech.edirect.rulesengine.model.type.PartnerType
import com.bolttech.edirect.rulesengine.shared.errors.BusinessException
import com.bolttech.edirect.rulesengine.util.Validator

dialect  "java"

rule "Voucher validation by vertical"
    when
        ApiContext($apiContextVertical : vertical)
        not(Voucher($voucherVertical : vertical contains $apiContextVertical))
    then
        throw new BusinessException("Voucher not valid for this vertical");
end

rule "Voucher validation by partner"
    when
        ApiContext($apiContextPartner : partner)
        not(Voucher($voucherPartner : partners contains $apiContextPartner))
    then
        throw new BusinessException("Voucher not valid for this partner");
end

rule "Voucher validation is used"

    when
        exists (Voucher(applyed == true))
    then
        throw new BusinessException("Voucher not valid already used");
end

rule "Voucher validation is not expired"
    when
        Voucher($startAt : startDate, $endAt : endDate)
        Validator(isExpiredVoucher($startAt, $endAt))
    then
        throw new BusinessException("Voucher not valid.");
end
