package rules.vouchers.calculator;

import com.bolttech.edirect.rulesengine.model.type.InstanceType
import com.bolttech.edirect.rulesengine.model.plan.Plan
import com.bolttech.edirect.rulesengine.model.voucher.Voucher
import com.bolttech.edirect.rulesengine.model.context.ApiContext
import com.bolttech.edirect.rulesengine.model.context.Instance

dialect  "java"

rule "Calculate descount by type: percentage"
    when
        ApiContext(instance == InstanceType.HONK_GI.instance)
        $voucher : Voucher(discountType == "1")
        $plan : Plan($planPrice : price)
    then
        $planPrice.setDiscount($planPrice.getProviderPriceWithoutTax() * $voucher.getValue() / 100);
        $planPrice.setFinalPrice($planPrice.getProviderPriceWithoutTax() - $planPrice.getDiscount() + $planPrice.getProviderTax());
end